// Jest Snapshot v1, https://goo.gl/fbAQLP

exports[`Should render Home component 1`] = `
<div
  className="ant-row ant-row-center sc-bdvvtL fCvndQ"
  style={
    Object {
      "marginBottom": -10,
      "marginLeft": -8,
      "marginRight": -8,
      "marginTop": -10,
    }
  }
>
  <div
    className="ant-col"
    style={
      Object {
        "paddingBottom": 10,
        "paddingLeft": 8,
        "paddingRight": 8,
        "paddingTop": 10,
      }
    }
  >
    <div
      className="ant-select ant-select-single ant-select-show-arrow ant-select-show-search"
      onBlur={[Function]}
      onFocus={[Function]}
      onKeyDown={[Function]}
      onKeyUp={[Function]}
      onMouseDown={[Function]}
      style={
        Object {
          "width": "100px",
        }
      }
    >
      <div
        className="ant-select-selector"
        onClick={[Function]}
        onMouseDown={[Function]}
      >
        <span
          className="ant-select-selection-search"
        >
          <input
            aria-activedescendant="undefined_list_0"
            aria-autocomplete="list"
            aria-controls="undefined_list"
            aria-haspopup="listbox"
            aria-owns="undefined_list"
            autoComplete="off"
            className="ant-select-selection-search-input"
            onChange={[Function]}
            onCompositionEnd={[Function]}
            onCompositionStart={[Function]}
            onKeyDown={[Function]}
            onMouseDown={[Function]}
            onPaste={[Function]}
            readOnly={false}
            role="combobox"
            style={
              Object {
                "opacity": null,
              }
            }
            type="search"
            unselectable={null}
            value=""
          />
        </span>
        <span
          className="ant-select-selection-item"
          title="USD"
        >
          USD
        </span>
      </div>
      <span
        aria-hidden={true}
        className="ant-select-arrow"
        onMouseDown={[Function]}
        style={
          Object {
            "WebkitUserSelect": "none",
            "userSelect": "none",
          }
        }
        unselectable="on"
      >
        <span
          aria-label="down"
          className="anticon anticon-down ant-select-suffix"
          role="img"
        >
          <svg
            aria-hidden="true"
            data-icon="down"
            fill="currentColor"
            focusable="false"
            height="1em"
            viewBox="64 64 896 896"
            width="1em"
          >
            <path
              d="M884 256h-75c-5.1 0-9.9 2.5-12.9 6.6L512 654.2 227.9 262.6c-3-4.1-7.8-6.6-12.9-6.6h-75c-6.5 0-10.3 7.4-6.5 12.7l352.6 486.1c12.8 17.6 39 17.6 51.7 0l352.6-486.1c3.9-5.3.1-12.7-6.4-12.7z"
            />
          </svg>
        </span>
      </span>
    </div>
  </div>
  <div
    className="ant-col"
    style={
      Object {
        "paddingBottom": 10,
        "paddingLeft": 8,
        "paddingRight": 8,
        "paddingTop": 10,
      }
    }
  >
    <div
      className="ant-space ant-space-horizontal ant-space-align-center"
      style={Object {}}
    >
      <div
        className="ant-space-item"
        style={
          Object {
            "marginRight": 8,
          }
        }
      >
        Update interval
      </div>
      <div
        className="ant-space-item"
        style={Object {}}
      >
        <div
          className="ant-input-number-group-wrapper"
          style={
            Object {
              "width": "200px",
            }
          }
        >
          <div
            className="ant-input-number-wrapper ant-input-number-group"
          >
            <div
              className="ant-input-number"
              onBlur={[Function]}
              onCompositionEnd={[Function]}
              onCompositionStart={[Function]}
              onFocus={[Function]}
              onKeyDown={[Function]}
              onKeyUp={[Function]}
              style={null}
            >
              <div
                className="ant-input-number-handler-wrap"
              >
                <span
                  aria-disabled={false}
                  aria-label="Increase Value"
                  className="ant-input-number-handler ant-input-number-handler-up"
                  onMouseDown={[Function]}
                  onMouseLeave={[Function]}
                  onMouseUp={[Function]}
                  role="button"
                  unselectable="on"
                >
                  <span
                    aria-label="up"
                    className="anticon anticon-up ant-input-number-handler-up-inner"
                    role="img"
                  >
                    <svg
                      aria-hidden="true"
                      data-icon="up"
                      fill="currentColor"
                      focusable="false"
                      height="1em"
                      viewBox="64 64 896 896"
                      width="1em"
                    >
                      <path
                        d="M890.5 755.3L537.9 269.2c-12.8-17.6-39-17.6-51.7 0L133.5 755.3A8 8 0 00140 768h75c5.1 0 9.9-2.5 12.9-6.6L512 369.8l284.1 391.6c3 4.1 7.8 6.6 12.9 6.6h75c6.5 0 10.3-7.4 6.5-12.7z"
                      />
                    </svg>
                  </span>
                </span>
                <span
                  aria-disabled={false}
                  aria-label="Decrease Value"
                  className="ant-input-number-handler ant-input-number-handler-down"
                  onMouseDown={[Function]}
                  onMouseLeave={[Function]}
                  onMouseUp={[Function]}
                  role="button"
                  unselectable="on"
                >
                  <span
                    aria-label="down"
                    className="anticon anticon-down ant-input-number-handler-down-inner"
                    role="img"
                  >
                    <svg
                      aria-hidden="true"
                      data-icon="down"
                      fill="currentColor"
                      focusable="false"
                      height="1em"
                      viewBox="64 64 896 896"
                      width="1em"
                    >
                      <path
                        d="M884 256h-75c-5.1 0-9.9 2.5-12.9 6.6L512 654.2 227.9 262.6c-3-4.1-7.8-6.6-12.9-6.6h-75c-6.5 0-10.3 7.4-6.5 12.7l352.6 486.1c12.8 17.6 39 17.6 51.7 0l352.6-486.1c3.9-5.3.1-12.7-6.4-12.7z"
                      />
                    </svg>
                  </span>
                </span>
              </div>
              <div
                className="ant-input-number-input-wrap"
              >
                <input
                  aria-valuemax={100}
                  aria-valuemin={1}
                  aria-valuenow="20"
                  autoComplete="off"
                  className="ant-input-number-input"
                  onChange={[Function]}
                  role="spinbutton"
                  step={1}
                  value="20"
                />
              </div>
            </div>
            <div
              className="ant-input-number-group-addon"
            >
              Seconds
            </div>
          </div>
        </div>
      </div>
    </div>
  </div>
  <div
    className="ant-col"
    style={
      Object {
        "paddingBottom": 10,
        "paddingLeft": 8,
        "paddingRight": 8,
        "paddingTop": 10,
      }
    }
  >
    <div
      className="ant-space ant-space-horizontal ant-space-align-center"
      style={Object {}}
    >
      <div
        className="ant-space-item"
        style={
          Object {
            "marginRight": 8,
          }
        }
      >
        Decimals precision:
      </div>
      <div
        className="ant-space-item"
        style={Object {}}
      >
        <div
          className="ant-input-number"
          onBlur={[Function]}
          onCompositionEnd={[Function]}
          onCompositionStart={[Function]}
          onFocus={[Function]}
          onKeyDown={[Function]}
          onKeyUp={[Function]}
          style={
            Object {
              "width": "100px",
            }
          }
        >
          <div
            className="ant-input-number-handler-wrap"
          >
            <span
              aria-disabled={false}
              aria-label="Increase Value"
              className="ant-input-number-handler ant-input-number-handler-up"
              onMouseDown={[Function]}
              onMouseLeave={[Function]}
              onMouseUp={[Function]}
              role="button"
              unselectable="on"
            >
              <span
                aria-label="up"
                className="anticon anticon-up ant-input-number-handler-up-inner"
                role="img"
              >
                <svg
                  aria-hidden="true"
                  data-icon="up"
                  fill="currentColor"
                  focusable="false"
                  height="1em"
                  viewBox="64 64 896 896"
                  width="1em"
                >
                  <path
                    d="M890.5 755.3L537.9 269.2c-12.8-17.6-39-17.6-51.7 0L133.5 755.3A8 8 0 00140 768h75c5.1 0 9.9-2.5 12.9-6.6L512 369.8l284.1 391.6c3 4.1 7.8 6.6 12.9 6.6h75c6.5 0 10.3-7.4 6.5-12.7z"
                  />
                </svg>
              </span>
            </span>
            <span
              aria-disabled={false}
              aria-label="Decrease Value"
              className="ant-input-number-handler ant-input-number-handler-down"
              onMouseDown={[Function]}
              onMouseLeave={[Function]}
              onMouseUp={[Function]}
              role="button"
              unselectable="on"
            >
              <span
                aria-label="down"
                className="anticon anticon-down ant-input-number-handler-down-inner"
                role="img"
              >
                <svg
                  aria-hidden="true"
                  data-icon="down"
                  fill="currentColor"
                  focusable="false"
                  height="1em"
                  viewBox="64 64 896 896"
                  width="1em"
                >
                  <path
                    d="M884 256h-75c-5.1 0-9.9 2.5-12.9 6.6L512 654.2 227.9 262.6c-3-4.1-7.8-6.6-12.9-6.6h-75c-6.5 0-10.3 7.4-6.5 12.7l352.6 486.1c12.8 17.6 39 17.6 51.7 0l352.6-486.1c3.9-5.3.1-12.7-6.4-12.7z"
                  />
                </svg>
              </span>
            </span>
          </div>
          <div
            className="ant-input-number-input-wrap"
          >
            <input
              aria-valuemax={20}
              aria-valuemin={1}
              aria-valuenow="5"
              autoComplete="off"
              className="ant-input-number-input"
              onChange={[Function]}
              role="spinbutton"
              step={1}
              value="5"
            />
          </div>
        </div>
      </div>
    </div>
  </div>
</div>
`;
